50004,010,01,5000401001,,23,,4022853129062,0.233,10,42010000
50004,010,02,5000401002,,22,,4022853129048,0.233,10,42010000
50004,010,55,5000401055,,7,,4022853130235,0.208,10,42010000
50004,010,57,5000401057,,14,,4022853177445,0.213,10,42010000
50004,010,67,5000401067,,18,,4022853135964,0.236,10,42010000
50005,000,00,5000500000,,30,,4022853062826,0.006,10,39263000
50005,002,00,5000500200,,30,,4022853159786,0.003,10,39263000
50007,010,55,5000701055,,6,,4022853148643,0.190,5,42010000
50007,010,57,5000701057,,14,,4022853176660,0.191,5,42010000
50007,010,67,5000701067,,18,,4022853152633,0.200,5,42010000
50011,010,55,5001101055,,6,,4022853159540,0.158,10,42010000
50015,010,02,5001501002,,22,,4022853176769,0.194,10,42010000
50026,010,55,5002601055,,6,,4022853164377,0.208,5,42010000
50029,010,55,5002901055,,6,,4022853161505,0.202,5,42010000
50035,010,02,5003501002,,22,,4022853176776,0.084,10,42010000
50035,010,55,5003501055,,7,,4022853230218,0.084,10,420100000
50035,010,57,5003501057,,14,,4022853214379,0.084,10,42010000
50035,010,67,5003501067,,18,,4022853194664,0.127,10,42010000
50036,010,55,5003601055,,6,,4022853164384,0.116,10,42010000
50037,010,55,5003701055,,6,,4022853148940,0.105,10,42010000
50037,014,55,5003701455,,6,,4022853190840,0.121,10,42010000
50037,010,57,5003701057,,14,,4022853178879,0.106,10,42010000
50037,010,67,5003701067,,18,,4022853194640,0.121,10,42010000
50039,010,55,5003901055,,6,,4022853161482,0.108,10,42010000
50045,010,01,5004501001,,23,,4022853129079,0.386,5,42010000
50045,010,02,5004501002,,22,,4022853127327,0.385,5,42010000
50045,010,55,5004501055,,7,,4022853131263,0.390,5,42010000
50045,010,57,5004501057,,14,,4022853194435,0.384,5,42010000
50045,010,67,5004501067,,18,,4022853165534,0.430,5,42010000
50047,010,55,5004701055,,6,,4022853150905,0.312,5,42010000
50047,010,57,5004701057,,14,,4022853209597,0.312,5,42010000
50047,010,67,5004701067,,18,,4022853209580,0.424,5,42010000
50049,010,55,5004901055,,6,,4022853161529,0.327,5,42010000
50050,010,55,5005001055,,9,,4022853170316,0.191,5,42010000
50050,014,55,5005001455,,9,,4022853170323,0.244,5,42010000
50050,010,65,5005001065,,9, ,4022853208484,0.191,5,42010000
50050,014,65,5005001465,,9, ,4022853208491,0.244,5,42010000
50050,010,66,5005001066,,15,,4022853209535,0.191,5,42010000
50050,014,66,5005001466,,15,,4022853209542,0.244,5,42010000
50050,010,68,5005001068,,19,,4022853208620,0.204,5,42010000
50050,014,68,5005001468,,19,,4022853208637,0.266,5,42010000
50051,010,55,5005101055,22,,,4022853170750,0.186,5,42010000
50051,014,55,5005101455,22,,,4022853170767,0.231,5,42010000
50051,010,65,5005101065,8,,,4022853208521,0.186,5,42010000
50051,014,65,5005101465,8,,,4022853208538,0.231,5,42010000
50051,010,66,5005101066,14,,,4022853209559,0.186,5,42010000
50051,014,66,5005101466,14,,,4022853209566,0.231,5,42010000
50051,010,68,5005101068,30,,,4022853208668,0.200,5,42010000
50051,014,68,5005101468,30,,,4022853208675,0.256,5,42010000
50103,010,55,5010301055,,8,,4022853131300,0.242,10,42010000
50104,010,55,5010401055, ,8,,4022853219527,0.204,5,42010000
50105,010,02,5010501002, ,22,,4022853123527,0.245,10,42010000
50105,010,55,5010501055, ,7,,4022853131287,0.221,10,42010000
50105,010,57,5010501057,,14,,4022853228260,0.220,10,42010000
50106,010,02,5010601002, ,22,,4022853127167,0.251,10,42010000
50108,014,55,5010801455, ,8,,4022853195296,0.211,5,42010000
50108,014,57,5010801457, ,14,,4022853198921,0.196,5,42010000
50109,008,55,5010900855,,7,,4022853221551,0.268,10,42010000
50109,010,55,5010901055,,7,,4022853221544,0.270,10,42010000
50109,012,55,5010901255,,7,,4022853220868,0.272,10,42010000
50115,010,02,5011501002, ,22,,4022853176752,0.196,10,42010000
50115,010,13,5011501013,,23,,4022853176837,0.200,10,42010000
50116,010,02,5011601002,,22,,4022853176783,0.206,10,42010000
50135,010,02,5013501002,,22,,4022853176790,0.086,10,42010000
50135,010,55,5013501055,,7,,4022853176745,0.082,10,42010000
50135,010,57,5013501057,,14,,4022853227898,0.083,10,42010000
50136,010,02,5013601002,,22,,4022853176806,0.091,10,42010000
50138,014,55,5013801455,,8,,4022853229076,0.099,5,42010000
50138,014,57,5013801457,,15,,4022853229083,0.099,5,42010000
50143,010,55,5014301055,,8,,4022853131348,0.405,5,42010000
50145,010,02,5014501002,,22,,4022853123541,0.398,5,42010000
50145,010,13,5014501013,,23,,4022853133151,0.403,5,42010000
50145,010,55,5014501055,,7,,4022853131324,0.384,5,42010000
50145,010,57,5014501057,,14,,4022853228277,0.384,5,42010000
50146,010,02,5014601002,,22,,4022853127181,0.404,5,42010000
50155,010,55,5015501055,,9,,4022853193735,0.220,5,42010000
50155,014,55,5015501455,,9,,4022853193742,0.273,5,42010000
50156,010,55,5015601055,22,,,4022853193759,0.220,5,42010000
50156,014,55,5015601455,22,,,4022853193766,0.262,5,42010000
50201,020,02,5020102002,34,,,4022853063328,0.012,10,42010000
50201,025,02,5020102502,34,,,4022853063359,0.013,10,42010000
50201,030,02,5020103002,34,,,4022853063397,0.016,10,42010000
50201,035,02,5020103502,34,,,4022853063441,0.019,10,42010000
50201,040,02,5020104002,34,,,4022853063502,0.021,10,42010000
50201,045,02,5020104502,34,,,4022853063540,0.022,10,42010000
50201,050,02,5020105002,34,,,4022853063595,0.024,10,42010000
50201,055,02,5020105502,34,,,4022853063618,0.026,10,42010000
50207,015,01,5020701501, ,,15,4022853064110,0.010,50,73158200
50301,027,02,5030102702,34,,,4022853147912,0.008,10,42010000
50301,030,02,5030103002,34,,,4022853147929,0.009,10,42010000
50301,040,02,5030104002,34,,,4022853147943,0.011,10,42010000
50301,045,02,5030104502,34,,,4022853147950,0.012,10,42010000
50301,060,02,5030106002,34,,,4022853148551,0.015,10,42010000
50301,080,02,5030108002,34,,,4022853148346,0.019,10,42010000
50301,100,02,5030110002,34,,,4022853148377,0.025,10,42010000
50500,000,01,5050000001,,23,,4022853064349,0.012,100,73262000
50500,000,02,5050000002,,22,,4022853064356,0.011,100,73262000
50500,000,55,5050000055,,8,,4022853064370,0.012,50,73262000
50500,000,57,5050000057,,15,,4022853176936,0.012,50,73262000
50500,000,67,5050000067,,18,,4022853064387,0.012,50,74191000
50505,000,55,5050500055,,9,,4022853170354,0.034,5,73262000
50505,000,65,5050500065,,9,,4022853208507,0.028,5,73262000
50505,000,66,5050500066,,15,,4022853209511,0.035,5,73262000
50505,000,68,5050500068,,19,,4022853208644,0.037,5,74191000
50506,000,55,5050600055,22,,,4022853170798,0.033,5,73262000
50506,000,65,5050600065,8,,,4022853208545,0.034,5,73262000
50506,000,66,5050600066,14,,,4022853209528,0.033,5,73262000
50506,000,68,5050600068,30,,,4022853208682,0.028,5,74191000
50510,000,02,5051000002,,22,,4022853064417,0.010,100,73262000
50510,000,13,5051000013,,23,,4022853064424,0.010,50,73262000
50530,000,02,5053000002,,22,,4022853064462,0.004,100,73262000
50530,000,55,5053000055,,8,,4022853148667,0.005,50,73262000
50530,000,57,5053000057,,15,,4022853178886,0.005,50,73262000
50530,000,67,5053000067,,18,,4022853194657,0.006,50,74191000
50540,000,01,5054000001,,23,,4022853064486,0.020,50,73262000
50540,000,02,5054000002,,22,,4022853064493,0.020,50,73262000
50540,000,13,5054000013,,23,,4022853064509,0.020,50,73262000
50540,000,55,5054000055,,8,,4022853064516,0.021,50,73262000
50540,000,57,5054000057,,15,,4022853197382,0.020,50,73262000
50540,000,67,5054000067,,18,,4022853064523,0.022,50,74191000
50702,025,02,5070202502,34,,,4022853064776,0.015,10,42010000
50702,030,02,5070203002,34,,,4022853064806,0.018,10,42010000
50702,035,02,5070203502,34,,,4022853064837,0.021,10,42010000
50702,040,02,5070204002,34,,,4022853064868,0.024,10,42010000
50702,045,02,5070204502,34,,,4022853064899,0.026,10,42010000
50702,050,02,5070205002,34,,,4022853064929,0.028,10,42010000
50702,055,02,5070205502,34,,,4022853064950,0.031,10,42010000
50702,060,02,5070206002,34,,,4022853064981,0.033,10,42010000
50702,065,02,5070206502,34,,,4022853065018,0.035,10,42010000
50705,020,01,5070502001, ,,15,4022853065155,0.015,100,73158200
50707,014,01,5070701401, ,,15,4022853141354,0.011,100,73158200
50722,030,02,5072203002,36,,,4022853065537,0.018,10,42010000
50722,035,02,5072203502,36,,,4022853065544,0.020,10,42010000
50722,040,02,5072204002,36,,,4022853065551,0.024,10,42010000
50722,045,02,5072204502,36,,,4022853065575,0.024,10,42010000
50722,050,02,5072205002,36,,,4022853065599,0.027,10,42010000
50722,055,02,5072205502,36,,,4022853065612,0.030,10,42010000
50722,060,02,5072206002,36,,,4022853065636,0.034,10,42010000
50781,030,02,5078103002,38,,,4022853065810,0.022,10,42010000
50781,035,02,5078103502,38,,,4022853065889,0.024,10,42010000
50781,040,02,5078104002,38,,,4022853065957,0.028,10,42010000
50781,045,02,5078104502,38,,,4022853066022,0.030,10,42010000
50781,050,02,5078105002,38,,,4022853066091,0.034,10,42010000
50781,055,02,5078105502,38,,,4022853066152,0.037,10,42010000
50781,060,02,5078106002,38,,,4022853066213,0.040,10,42010000
50803,030,02,5080303002,34,,,4022853066886,0.032,10,42010000
50803,035,02,5080303502,34,,,4022853066930,0.036,10,42010000
50803,040,02,5080304002,34,,,4022853066992,0.043,10,42010000
50803,045,02,5080304502,34,,,4022853067067,0.045,10,42010000
50803,050,02,5080305002,34,,,4022853067128,0.053,10,42010000
50803,055,02,5080305502,34,,,4022853067197,0.057,10,42010000
50803,060,02,5080306002,34,,,4022853067265,0.062,10,42010000
50803,065,02,5080306502,34,,,4022853067319,0.064,10,42010000
50803,070,02,5080307002,34,,,4022853067364,0.069,10,42010000
50803,075,02,5080307502,34,,,4022853067418,0.074,10,42010000
50803,080,02,5080308002,34,,,4022853067432,0.080,10,42010000
50803,030,55,5080303055,23,,,4022853066916,0.034,10,42010000
50803,035,55,5080303555,23,,,4022853066961,0.038,10,42010000
50803,040,55,5080304055,23,,,4022853067036,0.043,10,42010000
50803,045,55,5080304555,23,,,4022853067104,0.048,10,42010000
50803,050,55,5080305055,23,,,4022853067166,0.052,10,42010000
50803,055,55,5080305555,23,,,4022853067234,0.057,10,42010000
50803,060,55,5080306055,23,,,4022853067296,0.063,10,42010000
50803,065,55,5080306555,23,,,4022853067340,0.066,10,42010000
50803,030,57,5080303057,14,,,4022853184313,0.034,10,42010000
50803,035,57,5080303557,14,,,4022853184320,0.038,10,42010000
50803,040,57,5080304057,14,,,4022853184337,0.044,10,42010000
50803,045,57,5080304557,14,,,4022853184344,0.047,10,42010000
50803,050,57,5080305057,14,,,4022853184351,0.050,10,42010000
50803,055,57,5080305557,14,,,4022853184368,0.057,10,42010000
50803,060,57,5080306057,14,,,4022853190451,0.061,10,42010000
50803,065,57,5080306557,14,,,4022853190468,0.064,10,42010000
50815,021,01,5081502101, ,,15,4022853067548,0.030,100,73158200
50816,021,01,5081602101, ,,15,4022853067593,0.025,100,73158200
50822,030,02,5082203002,36,,,4022853112583,0.034,10,42010000
50822,035,02,5082203502,36,,,4022853067784,0.037,10,42010000
50822,040,02,5082204002,36,,,4022853067814,0.042,10,42010000
50822,045,02,5082204502,36,,,4022853067852,0.045,10,42010000
50822,050,02,5082205002,36,,,4022853067876,0.051,10,42010000
50822,055,02,5082205502,36,,,4022853067913,0.053,10,42010000
50822,060,02,5082206002,36,,,4022853067937,0.060,10,42010000
50822,065,02,5082206502,36,,,4022853067968,0.067,10,42010000
50881,035,02,5088103502,38,,,4022853068354,0.075,10,42010000
50881,040,02,5088104002,38,,,4022853068378,0.086,10,42010000
50881,045,02,5088104502,38,,,4022853068415,0.096,10,42010000
50881,050,02,5088105002,38,,,4022853068446,0.106,10,42010000
50881,055,02,5088105502,38,,,4022853068477,0.116,10,42010000
50881,060,02,5088106002,38,,,4022853068507,0.118,10,42010000
50881,030,55,5088103055,22,,,4022853104847,0.071,10,42010000
50881,035,55,5088103555,22,,,4022853104854,0.079,10,42010000
50881,040,55,5088104055,22,,,4022853104861,0.085,10,42010000
50881,045,55,5088104555,22,,,4022853104878,0.096,10,42010000
50881,050,55,5088105055,22,,,4022853104885,0.106,10,42010000
50881,055,55,5088105555,22,,,4022853104892,0.116,10,42010000
50881,060,55,5088106055,22,,,4022853104908,0.120,10,42010000
50881,035,57,5088103557,15,,,4022853191915,0.074,10,42010000
50881,040,57,5088104057,15,,,4022853191922,0.085,10,42010000
50881,045,57,5088104557,15,,,4022853191939,0.092,10,42010000
50881,050,57,5088105057,15,,,4022853191946,0.101,10,42010000
50881,055,57,5088105557,15,,,4022853191953,0.110,10,42010000
50881,060,57,5088106057,15,,,4022853191960,0.120,10,42010000
50883,045,02,5088304502,38,,,4022853068576,0.126,10,42010000
50883,050,02,5088305002,38,,,4022853068583,0.142,10,42010000
50883,055,02,5088305502,38,,,4022853068590,0.164,10,42010000
50883,060,02,5088306002,38,,,4022853068606,0.174,10,42010000
50883,065,02,5088306502,38,,,4022853068613,0.182,10,42010000
50903,035,02,5090303502,35,,,4022853068972,0.051,10,42010000
50903,040,02,5090304002,35,,,4022853069016,0.060,10,42010000
50903,045,02,5090304502,35,,,4022853069085,0.065,10,42010000
50903,050,02,5090305002,35,,,4022853069153,0.074,10,42010000
50903,055,02,5090305502,35,,,4022853069221,0.079,10,42010000
50903,060,02,5090306002,35,,,4022853069283,0.085,10,42010000
50903,065,02,5090306502,35,,,4022853069351,0.093,10,42010000
50903,075,02,5090307502,35,,,4022853069436,0.104,10,42010000
50903,030,55,5090303055,23,,,4022853175328,0.049,10,42010000
50903,035,55,5090303555,23,,,4022853069009,0.053,10,42010000
50903,040,55,5090304055,23,,,4022853069054,0.064,10,42010000
50903,045,55,5090304555,23,,,4022853069122,0.070,10,42010000
50903,050,55,5090305055,23,,,4022853069191,0.072,10,42010000
50903,055,55,5090305555,23,,,4022853069269,0.081,10,42010000
50903,060,55,5090306055,23,,,4022853069320,0.088,10,42010000
50903,065,55,5090306555,23,,,4022853069382,0.090,10,42010000
50903,045,57,5090304557,14,,,4022853191816,0.070,10,42010000
50903,050,57,5090305057,14,,,4022853191823,0.072,10,42010000
50903,055,57,5090305557,14,,,4022853191830,0.081,10,42010000
50903,060,57,5090306057,14,,,4022853191847,0.090,10,42010000
50906,040,55,5090604055,24,,,4022853152411,0.073,10,42010000
50906,045,55,5090604555,24,,,4022853154125,0.079,10,42010000
50906,050,55,5090605055,24,,,4022853152428,0.084,10,42010000
50906,055,55,5090605555,24,,,4022853154118,0.092,10,42010000
50906,060,55,5090606055,24,,,4022853152404,0.096,10,42010000
50906,065,55,5090606555,24,,,4022853154101,0.106,10,42010000
50906,070,55,5090607055,24,,,4022853152435,0.111,10,42010000
50908,040,02,5090804002,39,,,4022853069481,0.066,10,42010000
50908,045,02,5090804502,39,,,4022853069498,0.075,10,42010000
50908,050,02,5090805002,39,,,4022853069504,0.081,10,42010000
50908,055,02,5090805502,39,,,4022853069511,0.089,10,42010000
50908,060,02,5090806002,39,,,4022853069528,0.095,10,42010000
50908,065,02,5090806502,39,,,4022853069535,0.103,10,42010000
50908,070,02,5090807002,39,,,4022853172563,0.107,10,42010000
50916,021,01,5091602101, ,,15,4022853069580,0.044,50,73158200
50917,021,01,5091702101, ,,15,4022853120502,0.053,50,73158200
50917,021,55,5091702155,,,7,4022853230201,0.053,50,73158200
50922,035,02,5092203502,36,,,4022853069788,0.052,10,42010000
50922,040,02,5092204002,36,,,4022853069795,0.058,10,42010000
50922,045,02,5092204502,36,,,4022853069818,0.063,10,42010000
50922,050,02,5092205002,36,,,4022853069849,0.070,10,42010000
50922,055,02,5092205502,36,,,4022853069863,0.078,10,42010000
50922,060,02,5092206002,36,,,4022853069870,0.084,10,42010000
50922,065,02,5092206502,36,,,4022853069887,0.093,10,42010000
50922,070,02,5092207002,36,,,4022853069917,0.099,10,42010000
51012,040,02,5101204002,37,,,4022853070845,0.095,10,42010000
51012,045,02,5101204502,37,,,4022853070883,0.109,10,42010000
51012,050,02,5101205002,37,,,4022853070920,0.119,10,42010000
51012,055,02,5101205502,37,,,4022853070968,0.130,10,42010000
51012,060,02,5101206002,37,,,4022853071019,0.140,10,42010000
51012,065,02,5101206502,37,,,4022853071064,0.155,10,42010000
51012,070,02,5101207002,37,,,4022853071095,0.170,10,42010000
51012,075,02,5101207502,37,,,4022853071125,0.177,10,42010000
51022,050,02,5102205002,37,,,4022853071477,0.119,10,42010000
51022,055,02,5102205502,37,,,4022853071491,0.127,10,42010000
51022,060,02,5102206002,37,,,4022853071521,0.136,10,42010000
51022,065,02,5102206502,37,,,4022853071552,0.152,10,42010000
51022,070,02,5102207002,37,,,4022853071583,0.161,10,42010000
51025,050,02,5102505002,39,,,4022853071637,0.117,10,42010000
51025,055,02,5102505502,39,,,4022853071644,0.133,10,42010000
51025,060,02,5102506002,39,,,4022853071651,0.140,10,42010000
51025,065,02,5102506502,39,,,4022853071668,0.155,10,42010000
51101,040,02,5110104002,38,,,4022853071910,0.080,10,42010000
51101,045,02,5110104502,38,,,4022853071958,0.090,10,42010000
51101,050,02,5110105002,38,,,4022853071996,0.101,10,42010000
51101,055,02,5110105502,38,,,4022853072030,0.110,10,42010000
51101,060,02,5110106002,38,,,4022853072078,0.120,10,42010000
51112,040,02,5111204002,35,,,4022853072658,0.077,10,42010000
51112,045,02,5111204502,35,,,4022853072702,0.084,10,42010000
51112,050,02,5111205002,35,,,4022853072757,0.096,10,42010000
51112,055,02,5111205502,35,,,4022853072818,0.101,10,42010000
51112,060,02,5111206002,35,,,4022853072870,0.113,10,42010000
51112,065,02,5111206502,35,,,4022853072931,0.126,10,42010000
51112,070,02,5111207002,35,,,4022853072993,0.128,10,42010000
51112,040,55,5111204055,23,,,4022853072689,0.080,10,42010000
51112,045,55,5111204555,23,,,4022853072733,0.090,10,42010000
51112,050,55,5111205055,23,,,4022853072795,0.107,10,42010000
51112,055,55,5111205555,23,,,4022853072856,0.110,10,42010000
51112,060,55,5111206055,23,,,4022853072917,0.124,10,42010000
51112,065,55,5111206555,23,,,4022853072979,0.131,10,42010000
51112,070,55,5111207055,23,,,4022853073013,0.145,10,42010000
51112,050,57,5111205057,15,,,4022853208569,0.107,10,42010000
51112,055,57,5111205557,15,,,4022853208576,0.110,10,42010000
51112,060,57,5111206057,15,,,4022853208583,0.124,10,42010000
51112,065,57,5111206557,15,,,4022853208590,0.129,10,42010000
51112,045,65,5111204565,8,,,4022853208316,0.090,10,42010000
51112,050,65,5111205065,8,,,4022853208323,0.107,10,42010000
51112,055,65,5111205565,8,,,4022853208330,0.110,10,42010000
51112,060,65,5111206065,8,,,4022853208347,0.124,10,42010000
51112,065,65,5111206565,8,,,4022853208354,0.129,10,42010000
51112,040,67,5111204067,30,,,4022853208552,0.107,10,42010000
51112,045,67,5111204567,30,,,4022853195609,0.107,10,42010000
51112,050,67,5111205067,30,,,4022853191281,0.117,10,42010000
51112,055,67,5111205567,30,,,4022853191298,0.129,10,42010000
51112,060,67,5111206067,30,,,4022853191304,0.139,10,42010000
51112,065,67,5111206567,30,,,4022853191311,0.150,10,42010000
51113,035,65,5111303565,9,,,4022853208743,0.136,10,42010000
51113,040,65,5111304065,9,,,4022853208736,0.154,10,42010000
51113,045,65,5111304565,9,,,4022853208729,0.178,10,42010000
51113,050,65,5111305065,9,,,4022853208712,0.197,10,42010000
51113,055,65,5111305565,9,,,4022853208705,0.216,10,42010000
51113,060,65,5111306065,9,,,4022853208699,0.235,10,42010000
51122,040,02,5112204002,36,,,4022853073228,0.074,10,42010000
51122,045,02,5112204502,36,,,4022853073235,0.085,10,42010000
51122,050,02,5112205002,36,,,4022853073259,0.089,10,42010000
51122,055,02,5112205502,36,,,4022853073303,0.102,10,42010000
51122,060,02,5112206002,36,,,4022853073358,0.112,10,42010000
51122,065,02,5112206502,36,,,4022853073396,0.120,10,42010000
51122,070,02,5112207002,36,,,4022853073440,0.134,10,42010000
51170,021,55,5117002155,,,7,4022853196163,0.070,50,73158200
51172,021,55,5117202155,,,7,4022853160218,0.046,50,73158200
51183,018,55,5118301855,,,7,4022853194336,0.042,50,73158200
51186,021,01,5118602101, ,,15,4022853159731,0.050,50,73158200
51309,021,01,5130902101, ,,15,4022853074454,0.027,50,73158200
51309,021,55,5130902155,,,7,4022853220677,0.027,50,73158200
51312,021,01,5131202101, ,,15,4022853074461,0.038,50,73158200
51318,021,57,5131802157,,,7,4022853222183,0.050,50,73158200
51336,035,02,5133603502,39,,,4022853075000,0.048,10,42010000
51336,040,02,5133604002,39,,,4022853075017,0.053,10,42010000
51336,045,02,5133604502,39,,,4022853075024,0.058,10,42010000
51336,050,02,5133605002,39,,,4022853075031,0.063,10,42010000
51336,055,02,5133605502,39,,,4022853075048,0.067,10,42010000
51336,060,02,5133606002,39,,,4022853075055,0.073,10,42010000
51336,065,02,5133606502,39,,,4022853075062,0.077,10,42010000
51336,070,02,5133607002,39,,,4022853075079,0.081,10,42010000
51336,075,02,5133607502,39,,,4022853172556,0.085,10,42010000
51342,021,55,5134202155,,,7,4022853170224,0.025,50,73158200
51372,050,02,5137205002,37,,,4022853200143,0.198,10,42010000
51372,055,02,5137205502,37,,,4022853200150,0.222,10,42010000
51372,060,02,5137206002,37,,,4022853200167,0.237,10,42010000
51372,065,02,5137206502,37,,,4022853200174,0.260,10,42010000
51372,070,02,5137207002,37,,,4022853200198,0.277,10,42010000
51372,075,02,5137207502,37,,,4022853200211,0.296,10,42010000
51381,045,02,5138104502,35,,,4022853075215,0.159,10,42010000
51381,050,02,5138105002,35,,,4022853075222,0.175,10,42010000
51381,055,02,5138105502,35,,,4022853075246,0.191,10,42010000
51381,060,02,5138106002,35,,,4022853075260,0.210,10,42010000
51381,065,02,5138106502,35,,,4022853075291,0.228,10,42010000
51381,070,02,5138107002,35,,,4022853075338,0.237,10,42010000
51381,075,02,5138107502,35,,,4022853075383,0.261,10,42010000
51381,080,02,5138108002,35,,,4022853075420,0.267,10,42010000
51381,055,55,5138105555,23,,,4022853112705,0.190,10,42010000
51381,060,55,5138106055,23,,,4022853112699,0.211,10,42010000
51381,065,55,5138106555,23,,,4022853112682,0.220,10,42010000
51381,070,55,5138107055,23,,,4022853112675,0.243,10,42010000
51381,075,55,5138107555,23,,,4022853112668,0.253,10,42010000
51381,080,55,5138108055,23,,,4022853108203,0.270,10,42010000
51381,055,57,5138105557,15,,,4022853224064,0.190,10,42010000
51381,060,57,5138106057,15,,,4022853224071,0.211,10,42010000
51381,065,57,5138106557,15,,,4022853224088,0.220,10,42010000
51381,070,57,5138107057,15,,,4022853224095,0.243,10,42010000
51381,075,57,5138107557,15,,,4022853224101,0.253,10,42010000
51381,080,57,5138108057,15,,,4022853224118,0.270,10,42010000
51381,055,65,5138105565,8,,,4022853208255,0.186,10,42010000
51381,060,65,5138106065,8,,,4022853208262,0.208,10,42010000
51381,065,65,5138106565,8,,,4022853208279,0.220,10,42010000
51381,070,65,5138107065,8,,,4022853208286,0.243,10,42010000
51381,075,65,5138107565,8,,,4022853208293,0.250,10,42010000
51381,080,65,5138108065,8,,,4022853208309,0.270,10,42010000
51391,045,02,5139104502,37,,,4022853075666,0.186,10,42010000
51391,050,02,5139105002,37,,,4022853075697,0.198,10,42010000
51391,055,02,5139105502,37,,,4022853075734,0.222,10,42010000
51391,060,02,5139106002,37,,,4022853075765,0.237,10,42010000
51391,065,02,5139106502,37,,,4022853075796,0.260,10,42010000
51391,070,02,5139107002,37,,,4022853075826,0.277,10,42010000
51391,075,02,5139107502,37,,,4022853075857,0.284,10,42010000
51401,060,02,5140106002,35,,,4022853075949,0.314,5,42010000
51401,065,02,5140106502,35,,,4022853075956,0.342,5,42010000
51401,070,02,5140107002,35,,,4022853075963,0.366,5,42010000
51401,075,02,5140107502,35,,,4022853075970,0.399,5,42010000
51401,080,02,5140108002,35,,,4022853075987,0.413,10,42010000
51451,027,02,5145102702,40,,,4022853147097,0.023,10,42010000
51451,032,02,5145103202,40,,,4022853147103,0.026,10,42010000
51451,036,02,5145103602,40,,,4022853147110,0.029,10,42010000
51451,040,02,5145104002,40,,,4022853147127,0.032,10,42010000
51451,045,02,5145104502,40,,,4022853147134,0.035,10,42010000
51451,049,02,5145104902,40,,,4022853146878,0.037,10,42010000
51451,054,02,5145105402,,,,4022853146885,0.040,10,"42,010,000"
51506,042,02,5150604202,41,24,,4022853076298,0.063,10,42010000
51506,046,02,5150604602,41,24,,4022853076311,0.068,10,42010000
51506,050,02,5150605002,41,24,,4022853076397,0.073,10,42010000
51506,054,02,5150605402,41,24,,4022853076472,0.079,10,42010000
51506,058,02,5150605802,41,24,,4022853076557,0.082,10,42010000
51506,062,02,5150606202,41,24,,4022853076632,0.089,10,42010000
51506,066,02,5150606602,41,24,,4022853076717,0.093,10,42010000
51506,046,55,5150604655,25,12,,4022853076366,0.072,10,42010000
51506,050,55,5150605055,25,12,,4022853076441,0.078,10,42010000
51506,054,55,5150605455,25,12,,4022853076526,0.083,10,42010000
51506,058,55,5150605855,25,12,,4022853076601,0.089,10,42010000
51506,062,55,5150606255,25,12,,4022853076694,0.093,10,42010000
51506,066,55,5150606655,25,12,,4022853076762,0.099,10,42010000
51506,072,55,5150607255,25,12,,4022853124678,0.109,10,42010000
51506,050,57,5150605057,16,16,,4022853194442,0.078,10,42010000
51506,054,57,5150605457,16,16,,4022853194459,0.083,10,42010000
51506,058,57,5150605857,16,16,,4022853194466,0.087,10,42010000
51506,062,57,5150606257,16,16,,4022853194473,0.093,10,42010000
51506,066,57,5150606657,16,16,,4022853194497,0.099,10,42010000
51506,072,57,5150607257,16,16,,4022853195166,0.100,10,42010000
51506,050,65,5150605065,10,,,4022853208187,0.078,10,42010000
51506,054,65,5150605465,10,,,4022853208194,0.083,10,42010000
51506,058,65,5150605865,10,,,4022853208200,0.087,10,42010000
51506,062,65,5150606265,10,,,4022853208217,0.093,10,42010000
51506,066,65,5150606665,10,,,4022853208231,0.099,10,42010000
51506,072,65,5150607265,10,,,4022853208248,0.109,10,42010000
51506,046,67,5150604667,31,20,,4022853076373,0.081,10,42010000
51506,050,67,5150605067,31,20,,4022853076458,0.087,10,42010000
51506,054,67,5150605467,31,20,,4022853076533,0.092,10,42010000
51506,058,67,5150605867,31,20,,4022853076618,0.093,10,42010000
51506,062,67,5150606267,31,20,,4022853076700,0.104,10,42010000
51506,066,67,5150606667,31,20,,4022853076779,0.104,10,42010000
51508,056,55,5150805655,,10,,4022853076922,0.115,5,42010000
51508,064,55,5150806455,,10,,4022853076946,0.125,5,42010000
51508,072,55,5150807255,,10,,4022853076960,0.136,5,42010000
51508,056,57,5150805657,,15,,4022853204110,0.115,5,42010000
51508,064,57,5150806457,,15,,4022853204127,0.120,5,42010000
51508,072,57,5150807257,,15,,4022853204134,0.136,5,42010000
51508,056,67,5150805667,,19,,4022853228796,0.120,10,42010000
51508,064,67,5150806467,,19,,4022853228802,0.133,10,42010000
51508,072,67,5150807267,,19,,4022853228819,0.142,10,42010000
51516,050,55,5151605055,27,,,4022853224897,0.115,10,42010000
51516,054,55,5151605455,27,,,4022853224903,0.120,10,42010000
51516,058,55,5151605855,27,,,4022853224910,0.128,10,42010000
51516,062,55,5151606255,27,,,4022853224927,0.131,10,42010000
51516,066,55,5151606655,27,,,4022853224934,0.137,10,42010000
51516,070,55,5151607055,27,,,4022853224941,0.142,10,42010000
51518,056,55,5151805655,,10,,4022853149411,0.118,5,42010000
51518,064,55,5151806455,,10,,4022853149404,0.127,5,42010000
51518,072,55,5151807255,,10,,4022853151223,0.139,5,42010000
51520,035,02,5152003502,40,,,4022853077080,0.064,10,42010000
51520,040,02,5152004002,40,,,4022853077110,0.072,10,42010000
51520,045,02,5152004502,40,,,4022853077141,0.080,10,42010000
51520,050,02,5152005002,40,,,4022853077172,0.090,10,42010000
51520,055,02,5152005502,40,,,4022853077202,0.097,10,42010000
51520,060,02,5152006002,40,,,4022853077233,0.107,10,42010000
51520,065,02,5152006502,40,,,4022853077264,0.114,10,42010000
51528,056,55,5152805655,,10,,4022853171528,0.123,5,42010000
51528,064,55,5152806455,,10,,4022853171498,0.135,5,42010000
51528,072,55,5152807255,,10,,4022853171504,0.144,5,42010000
51530,045,02,5153004502,40,,,4022853133472,0.093,10,42010000
51530,050,02,5153005002,40,,,4022853133465,0.101,10,42010000
51530,055,02,5153005502,40,,,4022853133489,0.107,10,42010000
51530,060,02,5153006002,40,,,4022853133502,0.117,10,42010000
51530,065,02,5153006502,40,,,4022853133519,0.125,10,42010000
51541,039,55,5154103955,25,11,,4022853142733,0.070,10,42010000
51541,044,55,5154104455,25,11,,4022853142351,0.081,10,42010000
51541,050,55,5154105055,25,11,,4022853142368,0.088,10,42010000
51541,055,55,5154105555,25,11,,4022853142375,0.100,10,42010000
51541,061,55,5154106155,25,11,,4022853142382,0.105,10,42010000
51541,067,55,5154106755,25,11,,4022853142405,0.118,10,42010000
51541,072,55,5154107255,25,11,,4022853142412,0.128,10,42010000
51541,039,57,5154103957,16,16,,4022853183965,0.070,10,42010000
51541,044,57,5154104457,16,16,,4022853183972,0.080,10,42010000
51541,050,57,5154105057,16,16,,4022853183989,0.090,10,42010000
51541,055,57,5154105557,16,16,,4022853183996,0.097,10,42010000
51541,061,57,5154106157,16,16,,4022853184009,0.105,10,42010000
51541,067,57,5154106757,16,16,,4022853184016,0.114,10,42010000
51541,072,57,5154107257,16,16,,4022853192967,0.127,10,42010000
51541,039,65,5154103965,9,,,4022853207388,0.071,10,42010000
51541,044,65,5154104465,9,,,4022853207562,0.079,10,42010000
51541,050,65,5154105065,9,,,4022853207579,0.090,10,42010000
51541,055,65,5154105565,9,,,4022853207593,0.097,10,42010000
51541,061,65,5154106165,9,,,4022853207616,0.108,10,42010000
51541,067,65,5154106765,9,,,4022853207623,0.114,10,42010000
51541,039,67,5154103967,30,20,,4022853157683,0.079,10,42010000
51541,044,67,5154104467,30,20,,4022853157638,0.089,10,42010000
51541,050,67,5154105067,30,20,,4022853157645,0.102,10,42010000
51541,055,67,5154105567,30,20,,4022853157676,0.107,10,42010000
51541,061,67,5154106167,30,20,,4022853157652,0.119,10,42010000
51541,067,67,5154106767,30,20,,4022853157669,0.128,10,42010000
51543,046,65,5154304665,9,,,4022853208040,0.086,10,42010000
51543,054,65,5154305465,9,,,4022853208057,0.099,10,42010000
51543,061,65,5154306165,9,,,4022853208064,0.111,10,42010000
51543,068,65,5154306865,9,,,4022853208071,0.123,10,42010000
51544,042,55,5154404255,24,,,4022853165213,0.114,10,42010000
51544,046,55,5154404655,24,,,4022853164162,0.118,10,42010000
51544,050,55,5154405055,24,,,4022853164179,0.124,10,42010000
51544,054,55,5154405455,24,,,4022853164186,0.133,10,42010000
51544,058,55,5154405855,24,,,4022853164193,0.137,10,42010000
51544,062,55,5154406255,24,,,4022853164339,0.144,10,42010000
51545,045,57,5154504557,15,,,4022853216281,0.105,10,42010000
51545,050,57,5154505057,15,,,4022853216298,0.121,10,42010000
51545,055,57,5154505557,15,,,4022853216304,0.130,10,42010000
51545,060,57,5154506057,15,,,4022853216311,0.139,10,42010000
51547,045,55,5154704555,24,,,4022853194374,0.097,10,42010000
51547,050,55,5154705055,24,,,4022853194381,0.100,10,42010000
51547,055,55,5154705555,24,,,4022853194398,0.109,10,42010000
51547,060,55,5154706055,24,,,4022853194404,0.118,10,42010000
51547,065,55,5154706555,24,,,4022853194411,0.124,10,42010000
51547,075,55,5154707555,24,,,4022853195289,0.144,10,42010000
51548,045,55,5154804555,24,11,,4022853208446,0.094,10,42010000
51548,050,55,5154805055,24,11,,4022853208439,0.103,10,42010000
51548,055,55,5154805555,24,11,,4022853208422,0.112,10,42010000
51548,060,55,5154806055,24,11,,4022853208453,0.121,10,42010000
51548,065,55,5154806555,24,11,,4022853208460,0.130,10,42010000
51553,037,55,5155303755,25,,,4022853115119,0.058,10,42010000
51553,040,55,5155304055,25,,,4022853115102,0.066,10,42010000
51553,044,55,5155304455,25,,,4022853115133,0.073,10,42010000
51553,047,55,5155304755,25,,,4022853115140,0.078,10,42010000
51553,051,55,5155305155,25,,,4022853115157,0.081,10,42010000
51553,054,55,5155305455,25,,,4022853110176,0.086,10,42010000
51553,058,55,5155305855,25,,,4022853110152,0.091,10,42010000
51553,061,55,5155306155,25,,,4022853110138,0.094,10,42010000
51553,064,55,5155306455,25,,,4022853110121,0.100,10,42010000
51553,068,55,5155306855,25,,,4022853106605,0.103,10,42010000
51566,054,02,5156605402,41,,,4022853077325,0.109,10,42010000
51566,059,02,5156605902,41,,,4022853077349,0.115,10,42010000
51566,063,02,5156606302,41,,,4022853077363,0.125,10,42010000
51566,068,02,5156606802,41,,,4022853077387,0.131,10,42010000
51566,073,02,5156607302,41,,,4022853077400,0.138,10,42010000
51604,050,02,5160405002,42,24,,4022853114600,0.142,10,42010000
51604,054,02,5160405402,42,24,,4022853077622,0.152,10,42010000
51604,059,02,5160405902,42,24,,4022853077738,0.161,10,42010000
51604,063,02,5160406302,42,24,,4022853077837,0.175,10,42010000
51604,067,02,5160406702,42,24,,4022853077943,0.185,10,42010000
51604,072,02,5160407202,42,24,,4022853078032,0.198,10,42010000
51604,076,02,5160407602,42,24,,4022853078124,0.209,10,42010000
51604,080,02,5160408002,42,24,,4022853078186,0.220,10,42010000
51604,084,02,5160408402,42,24,,4022853078209,0.232,10,42010000
51604,050,55,5160405055,26,12,,4022853166814,0.139,10,42010000
51604,054,55,5160405455,26,12,,4022853077707,0.153,10,42010000
51604,059,55,5160405955,26,12,,4022853077806,0.163,10,42010000
51604,063,55,5160406355,26,12,,4022853077912,0.171,10,42010000
51604,067,55,5160406755,26,12,,4022853078018,0.182,10,42010000
51604,072,55,5160407255,26,12,,4022853078100,0.200,10,42010000
51604,076,55,5160407655,26,12,,4022853078162,0.210,10,42010000
51604,080,55,5160408055,26,12,,4022853078193,0.215,10,42010000
51604,054,57,5160405457,17,16,,4022853190307,0.149,10,42010000
51604,059,57,5160405957,17,16,,4022853191854,0.161,10,42010000
51604,063,57,5160406357,17,16,,4022853191861,0.180,10,42010000
51604,067,57,5160406757,17,16,,4022853191878,0.183,10,42010000
51604,072,57,5160407257,17,16,,4022853191885,0.195,10,42010000
51604,076,57,5160407657,17,16,,4022853184061,0.207,10,42010000
51604,054,65,5160405465,10,,,4022853207630,0.141,10,42010000
51604,059,65,5160405965,10,,,4022853207821,0.161,10,42010000
51604,063,65,5160406365,10,,,4022853208088,0.180,10,42010000
51604,067,65,5160406765,10,,,4022853208095,0.184,10,42010000
51604,072,65,5160407265,10,,,4022853208101,0.198,10,42010000
51604,076,65,5160407665,10,,,4022853208118,0.206,10,42010000
51604,054,67,5160405467,31,20,,4022853077714,0.154,10,42010000
51604,059,67,5160405967,31,20,,4022853077813,0.171,10,42010000
51604,063,67,5160406367,31,20,,4022853077929,0.181,10,42010000
51604,067,67,5160406767,31,20,,4022853078025,0.194,10,42010000
51604,072,67,5160407267,31,20,,4022853078117,0.208,10,42010000
51604,076,67,5160407667,31,20,,4022853078179,0.219,10,42010000
51614,052,55,5161405255,27,,,4022853133595,0.125,10,42010000
51614,056,55,5161405655,27,,,4022853133601,0.125,10,42010000
51614,061,55,5161406155,27,,,4022853133618,0.205,10,42010000
51614,065,55,5161406555,27,,,4022853133625,0.125,10,42010000
51614,070,55,5161407055,27,,,4022853133632,0.227,10,42010000
51616,065,55,5161606555,27,,,4022853224811,0.240,10,42010000
51616,070,55,5161607055,27,,,4022853224842,0.251,10,42010000
51616,075,55,5161607555,27,,,4022853224859,0.262,10,42010000
51616,080,55,5161608055,27,,,4022853224866,0.273,10,42010000
51616,085,55,5161608555,27,,,4022853224873,0.284,10,42010000
51616,090,55,5161609055,27,,,4022853224880,0.295,10,42010000
51620,045,02,5162004502,40,24,,4022853078490,0.101,10,42010000
51620,050,02,5162005002,40,24,,4022853078537,0.115,10,42010000
51620,055,02,5162005502,40,24,,4022853078575,0.121,10,42010000
51620,060,02,5162006002,40,24,,4022853078612,0.132,10,42010000
51620,065,02,5162006502,40,24,,4022853078650,0.145,10,42010000
51620,070,02,5162007002,40,24,,4022853078698,0.162,10,42010000
51620,075,02,5162007502,40,24,,4022853078735,0.171,10,42010000
51629,050,02,5162905002,39,,,4022853193148,0.117,10,42010000
51629,055,02,5162905502,39,,,4022853193155,0.130,10,42010000
51629,060,02,5162906002,39,,,4022853193162,0.141,10,42010000
51629,065,02,5162906502,39,,,4022853193179,0.149,10,42010000
51632,045,02,5163204502,42,,,4022853225023,0.118,10,42010000
51632,048,02,5163204802,42,,,4022853225030,0.126,10,42010000
51632,051,02,5163205102,42,,,4022853225047,0.013,10,42010000
51632,054,02,5163205402,42,,,4022853225054,0.142,10,42010000
51632,057,02,5163205702,42,,,4022853225061,0.150,10,42010000
51632,060,02,5163206002,42,,,4022853225078,0.000,10,42010000
51632,063,02,5163206302,42,,,4022853225085,0.166,10,42010000
51632,066,02,5163206602,42,,,4022853225092,0.174,10,42010000
51632,069,02,5163206902,42,,,4022853225108,0.182,10,42010000
51641,051,55,5164105155,25,,,4022853185631,0.168,10,42010000
51641,054,55,5164105455,25,,,4022853184108,0.181,10,42010000
51641,059,55,5164105955,25,,,4022853185679,0.194,10,42010000
51641,064,55,5164106455,25,,,4022853185716,0.211,10,42010000
51641,069,55,5164106955,25,,,4022853185754,0.225,10,42010000
51641,074,55,5164107455,25,,,4022853185792,0.250,10,42010000
51641,080,55,5164108055,25,,,4022853222855,0.000,10,42010000
51641,085,55,5164108555,25,,,4022853222862,0.000,10,42010000
51641,051,57,5164105157,16,,,4022853185648,0.168,10,42010000
51641,054,57,5164105457,16,,,4022853184153,0.181,10,42010000
51641,059,57,5164105957,16,,,4022853185686,0.192,10,42010000
51641,064,57,5164106457,16,,,4022853185723,0.211,10,42010000
51641,069,57,5164106957,16,,,4022853185761,0.230,10,42010000
51641,074,57,5164107457,16,,,4022853185839,0.250,10,42010000
51641,080,57,5164108057,16,,,4022853222879,0.000,10,42010000
51641,085,57,5164108557,16,,,4022853222886,0.000,10,42010000
51641,051,65,5164105165,9,,,4022853208125,0.168,10,42010000
51641,054,65,5164105465,9,,,4022853208132,0.181,10,42010000
51641,059,65,5164105965,9,,,4022853208149,0.192,10,42010000
51641,064,65,5164106465,9,,,4022853208156,0.211,10,42010000
51641,069,65,5164106965,9,,,4022853208163,0.228,10,42010000
51641,074,65,5164107465,9,,,4022853208170,0.250,10,42010000
51661,055,02,5166105502,41,,,4022853079237,0.146,10,42010000
51661,058,02,5166105802,41,,,4022853079268,0.154,10,42010000
51661,061,02,5166106102,41,,,4022853079299,0.172,10,42010000
51661,065,02,5166106502,41,,,4022853079329,0.170,10,42010000
51661,068,02,5166106802,41,,,4022853079374,0.178,10,42010000
51663,051,02,5166305102,41,24,,4022853079473,0.138,10,42010000
51663,055,02,5166305502,41,24,,4022853079503,0.147,10,42010000
51663,058,02,5166305802,41,24,,4022853079565,0.155,10,42010000
51663,061,02,5166306102,41,24,,4022853079626,0.164,10,42010000
51663,065,02,5166306502,41,24,,4022853079688,0.171,10,42010000
51663,068,02,5166306802,41,24,,4022853079749,0.181,10,42010000
51663,075,02,5166307502,41,24,,4022853142948,0.198,10,42010000
51663,051,55,5166305155,26,12,,4022853147233,0.147,10,42010000
51663,055,55,5166305555,26,12,,4022853079541,0.158,10,42010000
51663,058,55,5166305855,26,12,,4022853079602,0.164,10,42010000
51663,061,55,5166306155,26,12,,4022853079664,0.172,10,42010000
51663,065,55,5166306555,26,12,,4022853079725,0.173,10,42010000
51663,068,55,5166306855,26,12,,4022853079794,0.188,10,42010000
51663,071,55,5166307155,26,12,,4022853170859,0.198,10,42010000
51663,074,55,5166307455,26,12,,4022853148728,0.209,10,42010000
51663,077,55,5166307755,26,12,,4022853158772,0.218,10,42010000
51663,051,57,5166305157,16,16,,4022853187284,0.146,10,42010000
51663,055,57,5166305557,16,16,,4022853187291,0.158,10,42010000
51663,058,57,5166305857,16,16,,4022853187307,0.163,10,42010000
51663,061,57,5166306157,16,16,,4022853208606,0.180,10,42010000
51663,065,57,5166306557,16,16,,4022853208613,0.190,10,42010000
51663,055,67,5166305567,31,20,,4022853079558,0.162,10,42010000
51663,058,67,5166305867,31,20,,4022853079619,0.172,10,42010000
51663,061,67,5166306167,31,20,,4022853079671,0.184,10,42010000
51663,065,67,5166306567,31,20,,4022853079732,0.190,10,42010000
51663,068,67,5166306867,31,20,,4022853079800,0.199,10,42010000
51682,055,55,5168205555,27,,,4022853216236,0.176,10,42010000
51682,058,55,5168205855,27,,,4022853216250,0.180,10,42010000
51682,061,55,5168206155,27,,,4022853216267,0.189,10,42010000
51682,065,55,5168206555,27,,,4022853216274,0.193,10,42010000
51900,038,02,5190003802,43,,,4022853080820,0.051,10,42010000
51905,040,02,5190504002,43,,,4022853080851,0.043,10,42010000
51927,033,02,5192703302,43,,,4022853080950,0.045,10,42010000
51949,042,02,5194904202,43,,,4022853081094,0.080,10,42010000
51950,042,02,5195004202,43,,,4022853081124,0.118,10,42010000
51955,048,02,5195504802,43,,,4022853081155,0.170,10,42010000
51955,056,02,5195505602,43,,,4022853081179,0.186,10,42010000
51984,075,02,5198407502,43,,,4022853081223,0.244,10,42010000
51993,061,02,5199306102,43,,,4022853081278,0.244,10,42010000
52150,040,02,5215004002,42,,15,4022853160904,0.037,10,73158200
52200,040,02,5220004002,42,,15,4022853081674,0.055,10,73158200
52304,080,02,5230408002,42,,16,4022853082121,0.155,10,73158200
52403,080,02,5240308002,42,,16,4022853082480,0.191,10,73158200
52420,040,02,5242004002,42,,15,4022853082749,0.091,10,73158200
52540,036,55,5254003655,26,,,4022853224965,0.096,10,42010000
52540,040,55,5254004055,26,,,4022853224972,0.102,10,42010000
52540,044,55,5254004455,26,,,4022853224989,0.108,10,42010000
52540,048,55,5254004855,26,,,4022853224996,0.114,10,42010000
52540,054,55,5254005455,26,,,4022853225009,0.123,10,42010000
52540,060,55,5254006055,26,,,4022853225016,0.132,10,42010000
53465,080,02,5346508002,42,,16,4022853084118,0.084,10,73158200
54100,200,01,5410020001,44,,,4022853084828,0.404,5,73158200
55104,250,01,5510425001,44,,,4022853085290,0.693,3,73158200
55256,000,00,5525600000,,,7,4022853232847,0.755,1,34059010
55711,200,01,5571120001,44,,,4022853085528,0.956,3,73158200
55901,120,06,5590112006,49,,,4022853085825,0.051,50,73262000
55919,000,00,5591900000,48,,,4022853222510,2.700,1,73269098
55920,999,01,5592099901,49,,,4022853157362,0.100,25,73262000
55921,999,01,5592199901,49,,,4022853165169,0.076,25,73262000
55935,000,00,5593500000,48,,,4022853209757,25.500,1,73269098
55950,009,01,5595000901,63,,20,4022853085870,0.001,500,83089000
55950,012,01,5595001201,63,,20,4022853121950,0.001,500,83089000
55950,018,01,5595001801,63,,20,4022853085900,0.001,500,83089000
55950,025,01,5595002501,63,,20,4022853085917,0.005,500,83089000
55950,030,01,5595003001,63,,20,4022853085955,0.008,500,83089000
55950,032,01,5595003201,63,,20,4022853085986,0.008,500,83089000
55950,025,55,5595002555,63,,7,4022853219312,0.006,100,83089000
55950,032,55,5595003255,63,,7,4022853219329,0.008,100,83089000
55980,000,55,5598000055,57,,,4022853086006,0.060,10,73262000
55990,460,02,5599046002,61,,,4022853086020,0.391,15,73262000
55991,000,56,5599100056,61,30,,4022853214232,1.050,1,73269098
56751,000,00,5675100000,54,,,4022853210012,0.067,10,96039091
57020,000,01,5702000001,56,,,4022853086235,0.037,10,96151900
57052,000,00,5705200000,55,,,4022853209993,0.056,10,96039091
57053,000,00,5705300000,55,,,4022853210005,0.067,10,96039091
57130,000,71,5713000071,56,,,4022853086280,0.120,20,96039091
57160,000,00,5716000000,56,,,4022853086327,0.129,1,96039091
57160,002,00,5716000200,56,,,4022853157539,0.124,1,96039091
57231,000,00,5723100000,54,,,4022853209924,0.083,5,96039091
57232,000,00,5723200000,54,,,4022853209931,0.088,5,96039091
57233,000,00,5723300000,54,,,4022853209948,0.101,5,96039091
57238,000,00,5723800000,55,,,4022853209955,0.047,5,96039091
57239,000,00,5723900000,55,,,4022853209962,0.007,10,96039091
57241,000,00,5724100000,53,,,4022853209979,0.139,5,96039091
57251,000,00,5725100000,53,,,4022853209986,0.134,5,96039091
57464,000,00,5746400000,60,,,4022853086501,0.021,10,92089000
57465,000,00,5746500000,60,,,4022853086518,0.026,10,92089000
57480,000,31,5748000031,60,29,,4022853086563,0.021,20,92089000
57481,000,31,5748100031,60,29,,4022853086587,0.022,20,92089000
57481,060,31,5748106031,60,29,,4022853086617,0.049,20,92089000
57504,000,55,5750400055,57,,,4022853086679,0.043,10,82142000
57507,002,00,5750700200, ,,10,4022853116543,0.440,5,82034000
57592,000,00,5759200000,57,,,4022853086808,0.094,10,96039091
58180,020,01,5818002001,57,29,,4022853087195,0.086,10,73158200
58196,000,00,5819600000,58,28,,4022853210074,0.029,10,63079098
58196,001,00,5819600100,58,28,,4022853106155,0.048,10,63079098
58196,005,00,5819600500,58,28,,4022853121080,0.066,10,63079098
58196,006,00,5819600600,58,28,,4022853121097,0.110,10,63079098
58196,007,00,5819600700,58,28,,4022853121103,0.243,10,63079098
58196,008,00,5819600800,58,28,,4022853210081,0.048,10,63079098
58196,009,00,5819600900,58,28,,4022853210098,0.070,10,63079098
58196,010,00,5819601000,58,28,,4022853210104,0.300,10,63079098
58197,001,00,5819700100,59,28,,4022853120090,0.168,10,56090000
58197,002,00,5819700200,59,28,,4022853122513,0.303,10,56090000
58197,003,00,5819700300,59,28,,4022853122520,0.138,10,56090000
58197,004,00,5819700400,59,28,,4022853210050,0.043,10,63079098
58197,005,00,5819700500,59,28,,4022853210067,0.067,10,63079098
58198,001,00,5819800100,59,,,4022853121721,0.174,10,40169997
58198,003,00,5819800300,59,,,4022853136596,0.333,10,40169997
58198,006,00,5819800600,59,,,4022853141415,0.105,10,40169997
58198,007,00,5819800700,59,,,4022853210029,0.077,0,40169997
58198,008,00,5819800800,59,,,4022853210036,0.125,10,40169997
58198,009,00,5819800900,59,,,4022853210043,0.188,10,40169997
58198,010,00,5819801000,59,,,4022853147226,0.073,10,40169997
58198,010,74,5819801074,59,,,4022853147851,0.072,10,40169997
58198,010,76,5819801076,59,,,4022853147219,0.073,10,40169997
59146,000,45,5914600045,,,22,4022853136657,0.055,10,83089000
59146,001,45,5914600145,,,22,4022853149510,0.043,10,83089000
59146,002,45,5914600245,,,22,4022853149527,0.021,10,83089000
59147,012,45,5914701245,,,22,4022853159632,0.003,100,79070000
59147,015,45,5914701545,,,22,4022853159649,0.003,100,79070000
59147,020,45,5914702045,,,22,4022853159656,0.004,100,79070000
59147,025,45,5914702545,,,22,4022853159663,0.005,100,79070000
59147,050,45,5914705045,,,22,4022853159670,0.010,100,79070000
59209,027,00,5920902700,,27,,4022853220554,0.020,10,42010000
59209,035,00,5920903500,,27,,4022853220585,0.020,10,42010000
59209,038,00,5920903800,,27,,4022853220608,0.025,10,42010000
59209,027,71,5920902771,,27,,4022853157263,0.015,1,42010000
59209,035,71,5920903571,,27,,4022853157270,0.019,10,42010000
59209,038,71,5920903871,,27,,4022853157287,0.024,1,42010000
59209,048,71,5920904871,,27,,4022853157294,0.033,1,42010000
59214,030,71,5921403071,53,,,4022853220455,0.143,5,42010000
59214,040,71,5921404071,53,,,4022853220462,0.149,5,42010000
59214,050,71,5921405071,53,,,4022853220479,0.158,5,42010000
59214,060,71,5921406071,53,,,4022853220486,0.156,5,42010000
59230,101,70,5923010170,52,27,,4022853210623,0.067,5,42010000
59230,120,70,5923012070,51,26,,4022853210593,0.081,5,42010000
59230,200,70,5923020070,51,26,,4022853210609,0.102,5,42010000
59230,201,70,5923020170,52,27,,4022853210630,0.102,5,42010000
59230,230,70,5923023070,52,26,,4022853222725,0.166,5,42010000
59230,300,70,5923030070,51,26,,4022853210616,0.158,5,42010000
59230,301,70,5923030170,52,27,,4022853210647,0.125,5,42010000
59230,501,70,5923050170,52,27,,4022853210654,0.187,5,42010000
59230,995,70,5923099570,52,26,,4022853210661,0.494,3,42010000
59230,999,70,5923099970,52,26,,4022853210678,0.347,3,42010000
59230,101,71,5923010171,52,27,,4022853173126,0.067,5,42010000
59230,120,71,5923012071,51,26,,4022853158017,0.081,5,42010000
59230,200,71,5923020071,51,26,,4022853158024,0.102,5,42010000
59230,201,71,5923020171,52,27,,4022853173133,0.102,5,42010000
59230,230,71,5923023071,52,26,,4022853222732,0.158,5,42010000
59230,300,71,5923030071,51,26,,4022853158109,0.158,5,42010000
59230,301,71,5923030171,52,27,,4022853173140,0.125,5,42010000
59230,501,71,5923050171,52,27,,4022853173157,0.187,5,42010000
59230,995,71,5923099571,52,26,,4022853173331,0.486,3,42010000
59230,999,71,5923099971,52,26,,4022853173164,0.347,3,42010000
59230,101,73,5923010173,52,27,,4022853210715,0.067,5,42010000
59230,120,73,5923012073,51,26,,4022853210685,0.081,5,42010000
59230,200,73,5923020073,51,26,,4022853210692,0.102,5,42010000
59230,201,73,5923020173,52,27,,4022853210722,0.102,5,42010000
59230,230,73,5923023073,52,26,,4022853222749,0.164,5,42010000
59230,300,73,5923030073,51,26,,4022853210708,0.158,5,42010000
59230,301,73,5923030173,52,27,,4022853210739,0.125,5,42010000
59230,501,73,5923050173,52,27,,4022853210869,0.187,5,42010000
59230,995,73,5923099573,52,26,,4022853210760,0.494,3,42010000
59230,999,73,5923099973,52,26,,4022853210753,0.338,3,42010000
59230,100,76,5923010076,51,26,,4022853222664,0.069,5,42010000
59230,200,76,5923020076,51,26,,4022853222671,0.098,5,42010000
59230,230,76,5923023076,52,26,,4022853213211,0.158,5,42010000
59230,301,76,5923030176,52,27,,4022853222688,0.119,5,42010000
59230,501,76,5923050176,52,27,,4022853222695,0.174,5,42010000
59230,995,76,5923099576,52,26,,4022853222701,0.459,5,42010000
59230,999,76,5923099976,52,26,,4022853222718,0.318,5,42010000
59340,030,71,5934003071,50,,,4022853210111,0.095,5,42010000
59340,035,71,5934003571,50,,,4022853210128,0.105,5,42010000
59340,040,71,5934004071,50,,,4022853210135,0.109,5,42010000
59340,045,71,5934004571,50,,,4022853210142,0.120,5,42010000
59340,050,71,5934005071,50,,,4022853210159,0.129,5,42010000
59340,055,71,5934005571,50,,,4022853210166,0.141,5,42010000
59340,060,71,5934006071,50,,,4022853210173,0.148,5,42010000
59340,030,77,5934003077,50,,,4022853220097,0.095,5,42010000
59340,035,77,5934003577,50,,,4022853220103,0.105,5,42010000
59340,040,77,5934004077,50,,,4022853220110,0.109,5,42010000
59340,045,77,5934004577,50,,,4022853220127,0.120,5,42010000
59340,050,77,5934005077,50,,,4022853220134,0.129,5,42010000
59340,055,77,5934005577,50,,,4022853220141,0.141,5,42010000
59340,060,77,5934006077,50,,,4022853220158,0.148,5,42010000
59341,030,00,5934103000,50,,,4022853210180,0.095,5,42010000
59341,035,00,5934103500,50,,,4022853210197,0.105,5,42010000
59341,040,00,5934104000,50,,,4022853210203,0.109,5,42010000
59341,045,00,5934104500,50,,,4022853210210,0.120,5,42010000
59341,050,00,5934105000,50,,,4022853210227,0.129,5,42010000
59341,055,00,5934105500,50,,,4022853210234,0.134,5,42010000
59341,060,00,5934106000,50,,,4022853210241,0.148,5,42010000
59342,030,00,5934203000,50,,,4022853210258,0.095,5,42010000
59342,035,00,5934203500,50,,,4022853210265,0.105,5,42010000
59342,040,00,5934204000,50,,,4022853210272,0.109,5,42010000
59342,045,00,5934204500,50,,,4022853210289,0.120,5,42010000
59342,050,00,5934205000,50,,,4022853210296,0.129,5,42010000
59342,055,00,5934205500,50,,,4022853210302,0.141,5,42010000
59342,060,00,5934206000,50,,,4022853210319,0.146,5,42010000
59343,030,00,5934303000,51,,,4022853210326,0.095,5,42010000
59343,035,00,5934303500,51,,,4022853210333,0.105,5,42010000
59343,040,00,5934304000,51,,,4022853210340,0.109,5,42010000
59343,045,00,5934304500,51,,,4022853210357,0.120,5,42010000
59343,050,00,5934305000,51,,,4022853210364,0.128,5,42010000
59343,055,00,5934305500,51,,,4022853210371,0.141,5,42010000
59343,060,00,5934306000,51,,,4022853210388,0.144,5,42010000
59344,030,00,5934403000,51,,,4022853210395,0.095,5,42010000
59344,035,00,5934403500,51,,,4022853210401,0.105,5,42010000
59344,040,00,5934404000,51,,,4022853210418,0.109,5,42010000
59344,045,00,5934404500,51,,,4022853210425,0.120,5,42010000
59344,050,00,5934405000,51,,,4022853210432,0.129,5,42010000
59344,055,00,5934405500,51,,,4022853210449,0.141,5,42010000
59344,060,00,5934406000,51,,,4022853210456,0.148,5,42010000
59551,000,30,5955100030,59,30,,4022853157324,0.086,10,92051000
59722,001,00,5972200100,News,,,4022853231246,0.093,1,62160000
59722,002,00,5972200200,News,,,4022853231253,0.093,1,62160000
59722,003,00,5972200300,News,,,4022853231260,0.093,1,62160000
59722,004,00,5972200400,News,,,4022853231277,0.093,1,62160000
59722,005,00,5972200500,News,,,4022853231284,0.093,1,62160000
59722,006,00,5972200600,News,,,4022853231291,0.093,1,62160000
59723,001,00,5972300100,News,,,4022853231307,0.093,1,62160000
59723,002,00,5972300200,News,,,4022853231314,0.093,1,62160000
59723,003,00,5972300300,News,,,4022853231321,0.093,1,62160000
59723,004,00,5972300400,News,,,4022853231338,0.093,1,62160000
59723,005,00,5972300500,News,,,4022853231345,0.093,1,62160000
59723,006,00,5972300600,News,,,4022853231352,0.093,1,62160000
59724,001,00,5972400100,News,,,4022853230089,0.100,1,62160000
59724,002,00,5972400200,News,,,4022853230096,0.100,1,62160000
59724,003,00,5972400300,News,,,4022853230102,0.100,1,62160000
59724,004,00,5972400400,News,,,4022853230119,0.100,1,62160000
59724,005,00,5972400500,News,,,4022853230126,0.100,1,62160000
59724,006,00,5972400600,News,,,4022853230133,0.100,1,62160000
60020,040,01,6002004001,,,17,4022853087928,0.014,50,73269098
60020,050,01,6002005001,,,17,4022853088000,0.017,50,73269098
60020,060,01,6002006001,,,17,4022853088093,0.026,50,73269098
60020,070,01,6002007001,,,17,4022853088185,0.037,50,73269098
60020,085,01,6002008501,,,17,4022853088260,0.053,50,73269098
60020,050,02,6002005002,,,17,4022853088017,0.017,50,73269098
60020,060,02,6002006002,,,17,4022853088109,0.026,50,73269098
60020,070,02,6002007002,,,17,4022853088192,0.037,50,73269098
60020,085,02,6002008502,,,17,4022853088277,0.053,50,73269098
60050,090,01,6005009001,,,17,4022853088826,0.081,25,73269098
60050,090,02,6005009002,,,17,4022853088833,0.081,25,73269098
60060,015,01,6006001501,,,16,4022853088864,0.042,10,73269098
60060,020,01,6006002001,,,16,4022853088888,0.042,10,73269098
60065,015,01,6006501501,,,16,4022853088901,0.046,10,73269098
60065,020,01,6006502001,,,16,4022853088925,0.046,10,73269098
60150,020,55,6015002055,,,8,4022853173560,0.043,10,73269098
60150,020,57,6015002057,,,9,4022853183828,0.043,10,73269098
60150,020,65,6015002065,,,8,4022853208514,0.043,10,73269098
60150,020,66,6015002066,,,9,4022853208651,0.043,10,73269098
60151,020,55,6015102055,,,8,4022853174574,0.035,10,73269098
60151,020,57,6015102057,,,9,4022853183842,0.035,10,73269098
60151,020,65,6015102065,,,8,4022853209498,0.043,10,73269098
60151,020,66,6015102066,,,9,4022853209504,0.043,10,73269098
60152,020,71,6015202071,,30,,4022853209429,0.043,10,39269097
60250,045,01,6025004501,62,,17,4022853089182,0.009,100,73269098
60250,055,01,6025005501,62,,17,4022853089274,0.015,100,73269098
60250,075,01,6025007501,62,,17,4022853089359,0.037,50,73269098
60250,345,01,6025034501,,,17,4022853233608,0.009,100,73269098
60250,045,55,6025004555,62,,,4022853221889,0.000,50,73269098
60250,055,55,6025005555,62,,,4022853191755,0.017,50,73269098
60250,075,55,6025007555,62,,,4022853222398,0.040,50,73269098
60250,155,55,6025015555,62,,,4022853218957,0.021,50,73269098
60252,060,55,6025206055,,,4,4022853232243,0.017,20,73269098
60400,014,01,6040001401,,,18,4022853174628,0.046,50,73269098
60400,016,01,6040001601,,,18,4022853174635,0.052,50,73269098
60400,019,01,6040001901,,,18,4022853167279,0.059,50,73269098
60490,055,33,6049005533,,,12,4022853105998,0.017,100,74199990
60490,065,33,6049006533,,,12,4022853163448,0.023,50,74199990
60490,075,33,6049007533,,,12,4022853122223,0.056,50,74199990
60490,080,33,6049008033,,,12,4022853089816,0.050,50,74199990
60490,085,33,6049008533,,,12,4022853089885,0.070,50,74199990
60490,090,33,6049009033,,,12,4022853089922,0.072,50,74199990
60490,050,45,6049005045,62,,21,4022853089564,0.010,100,79070000
60490,065,45,6049006545,62,,21,4022853089656,0.018,50,79070000
60490,075,45,6049007545,62,,21,4022853089748,0.027,50,79070000
60490,080,45,6049008045,62,,21,4022853089823,0.030,50,79070000
60490,085,45,6049008545,62,,21,4022853089892,0.031,50,79070000
60490,065,55,6049006555,,,4,4022853089670,0.026,50,73269098
60490,075,55,6049007555,,,4,4022853089762,0.038,50,73269098
60490,090,55,6049009055,,,4,4022853158215,0.054,50,73269098
60490,065,57,6049006557,,,9,4022853186423,0.026,50,73269098
60490,075,57,6049007557,,,9,4022853186416,0.038,50,73269098
60490,090,57,6049009057,,,9,4022853190215,0.054,50,73269098
60491,090,45,6049109045,,,21,4022853089984,0.043,50,79070000
60493,016,45,6049301645,62,,21,4022853175922,0.029,50,79070000
60493,019,45,6049301945,62,,21,4022853175939,0.030,50,79070000
60493,025,45,6049302545,62,,21,4022853175946,0.031,50,79070000
60500,017,45,6050001745,,,21,4022853106360,0.033,50,79070000
60500,020,45,6050002045,,,21,4022853106377,0.033,50,79070000
60500,023,45,6050002345,,,21,4022853106384,0.035,50,79070000
60500,026,45,6050002645,,,21,4022853106391,0.037,50,79070000
60501,014,45,6050101445,,,21,4022853106407,0.034,50,79070000
60501,017,45,6050101745,,,21,4022853106414,0.042,50,79070000
60501,020,45,6050102045,,,21,4022853106421,0.045,50,79070000
60501,026,45,6050102645,,,21,4022853106438,0.047,50,79070000
61000,000,33,6100000033,,,12,4022853232731,0.024,20,83089000
61290,030,56,6129003056,,,6,4022853232809,0.010,20,73269098
61290,050,56,6129005056,,,6,4022853233554,0.020,20,73269098
63000,010,01,6300001001,,,19,4022853090263,0.007,100,83089000
63000,014,01,6300001401,,,19,4022853090270,0.008,100,83089000
63000,016,01,6300001601,,,19,4022853090294,0.009,100,83089000
63000,018,01,6300001801,,,19,4022853090317,0.015,100,83089000
63000,025,01,6300002501,,,19,4022853149008,0.036,50,83024900
63000,021,57,6300002157,,,11,4022853194671,0.019,10,83024900
63002,017,33,6300201733,,,12,4022853090331,0.010,50,83089000
63002,020,33,6300202033,,,12,4022853090355,0.021,50,83089000
63002,025,33,6300202533,,,12,4022853090379,0.038,50,83089000
63002,030,33,6300203033,,,12,4022853090393,0.041,50,83089000
63220,014,33,6322001433,,,13,4022853164407,0.002,100,83024900
63220,020,33,6322002033,,,13,4022853164414,0.006,100,83024900
63220,025,33,6322002533,,,13,4022853164421,0.013,50,83024900
63220,029,33,6322002933,,,13,4022853164438,0.017,50,83024900
63515,000,00,6351500000,49,,,4022853147028,0.280,1,39269097
63560,016,33,6356001633,,,13,4022853164445,0.010,50,83089000
63560,020,33,6356002033,,,13,4022853164452,0.017,50,83089000
63560,025,33,6356002533,,,13,4022853164469,0.027,50,83089000
63560,029,33,6356002933,,,13,4022853164476,0.041,50,83089000
63560,014,56,6356001456,,,7,4022853164735,0.007,50,83089000
63560,016,56,6356001656,,,7,4022853164742,0.010,50,83089000
63560,020,56,6356002056,,,7,4022853164759,0.019,50,83089000
63560,025,56,6356002556,,,7,4022853164766,0.040,50,83089000
63560,029,56,6356002956,,,7,4022853164773,0.033,50,83089000
63560,014,57,6356001457,,,10,4022853193643,0.007,50,83089000
63560,016,57,6356001657,,,10,4022853193650,0.010,50,83089000
63560,020,57,6356002057,,,10,4022853193704,0.019,50,83089000
63560,025,57,6356002557,,,10,4022853193674,0.040,50,83089000
63560,029,57,6356002957,,,10,4022853193681,0.030,50,83089000
63700,012,01,6370001201,,,20,4022853090997,0.001,100,83061000
63700,015,01,6370001501,,,20,4022853091017,0.003,100,83061000
63700,018,01,6370001801,,,20,4022853091031,0.004,100,83061000
64600,003,33,6460000333,,,12,4022853233585,0.005,50,74199990
64600,005,33,6460000533,,,12,4022853233592,0.034,10,74199990
64631,005,56,6463100556,,,5,4022853233561,0.013,10,73159000
66053,035,56,6605303556,,,6,4022853232786,0.011,20,73269098
66054,070,56,6605407056,,,6,4022853232793,0.065,10,73269098
66100,004,56,6610000456,63,,5,4022853224958,0.005,100,73269098
66200,020,01,6620002001,,,18,4022853091109,0.020,100,73269098
66530,016,56,6653001656,,,7,4022853164681,0.016,50,83089000
66530,020,56,6653002056,,,7,4022853164698,0.018,50,83089000
66530,026,56,6653002656,,,7,4022853164704,0.027,50,83089000
66530,036,56,6653003656,,,7,4022853164711,0.039,50,83089000
66530,016,57,6653001657,,,10,4022853193520,0.016,50,83089000
66530,020,57,6653002057,,,10,4022853193537,0.018,50,83089000
66530,026,57,6653002657,,,10,4022853193544,0.027,50,83089000
66530,036,57,6653003657,,,10,4022853193551,0.039,50,83089000
66695,016,57,6669501657,,,10,4022853193575,0.005,50,83089000
66695,020,57,6669502057,,,10,4022853193582,0.007,50,83089000
66695,025,57,6669502557,,,10,4022853193599,0.010,50,83089000
68182,105,56,6818210556,,,6,4022853197849,0.059,20,73269098
68200,011,00,6820001100,,,9,4022853223852,0.048,100,73269098
68200,011,56,6820001156,,,4,4022853219657,0.049,50,73269098
68200,014,56,6820001456,,,4,4022853221391,0.051,50,73269098
68200,016,56,6820001656,,,4,4022853219640,0.051,50,73269098
68200,019,56,6820001956,,,4,4022853219121,0.053,50,73269098
68200,025,56,6820002556,,,4,4022853219138,0.054,50,73269098
68493,022,00,6849302200,,,12,4022853233578,0.033,20,74199990
68493,016,33,6849301633,,,12,4022853232748,0.035,20,74199990
69509,016,33,6950901633,,,13,4022853091307,0.007,100,83089000
69509,020,33,6950902033,,,13,4022853091321,0.010,100,83089000
69509,025,33,6950902533,,,13,4022853091352,0.016,50,83089000
69510,014,01,6951001401,,,18,4022853091413,0.003,500,83089000
69510,016,01,6951001601,,,18,4022853091468,0.003,500,83089000
69510,020,01,6951002001,,,18,4022853091536,0.006,500,83089000
69510,025,01,6951002501,,,18,4022853091604,0.010,500,83089000
69510,030,01,6951003001,,,18,4022853091659,0.015,100,83089000
69514,012,01,6951401201,,,18,4022853091741,0.001,500,83089000
69514,014,01,6951401401,,,18,4022853091796,0.002,500,83089000
69514,016,01,6951401601,,,18,4022853091840,0.002,500,83089000
69514,020,01,6951402001,,,18,4022853091932,0.002,500,83089000
69514,025,01,6951402501,,,18,4022853092007,0.003,500,83089000
69520,014,01,6952001401,,,19,4022853092281,0.001,500,83089000
69520,016,01,6952001601,,,19,4022853092328,0.002,500,83089000
69520,020,01,6952002001,,,19,4022853092380,0.004,500,83089000
69520,025,01,6952002501,,,19,4022853092458,0.006,500,83089000
69520,015,56,6952001556,,,5,4022853165220,0.004,100,83089000
69520,020,56,6952002056,,,5,4022853165237,0.005,100,83089000
69520,025,56,6952002556,,,5,4022853165244,0.010,100,83089000
69520,030,56,6952003056,,,5,4022853165251,0.012,100,83089000
69520,035,56,6952003556,,,5,4022853206343,0.011,100,83089000
69520,045,56,6952004556,,,5,4022853204677,0.022,100,73269098
69520,015,57,6952001557,,,11,4022853193483,0.004,50,83089000
69520,020,57,6952002057,,,11,4022853193490,0.005,100,83089000
69520,025,57,6952002557,,,11,4022853193506,0.010,50,83089000
69520,030,57,6952003057,,,11,4022853193513,0.012,50,83089000
69523,010,01,6952301001,,,19,4022853192196,0.001,100,83089000
69523,014,01,6952301401,,,19,4022853193834,0.002,100,83089000
69523,016,01,6952301601,,,19,4022853160188,0.005,100,83089000
69523,020,01,6952302001,,,19,4022853160171,0.007,100,83089000
69523,025,01,6952302501,,,19,4022853160164,0.012,100,83089000
69524,016,01,6952401601,,,19,4022853092663,0.003,500,83089000
69524,020,01,6952402001,,,19,4022853092700,0.004,500,83089000
69524,022,01,6952402201,,,19,4022853092748,0.005,500,83089000
69524,025,01,6952402501,,,19,4022853092755,0.007,500,83089000
69524,030,01,6952403001,,,19,4022853092809,0.011,100,83089000
69524,016,56,6952401656,,,5,4022853165299,0.003,50,83089000
69524,020,56,6952402056,,,5,4022853165268,0.004,50,83089000
69524,025,56,6952402556,,,5,4022853165275,0.009,50,83089000
69524,030,56,6952403056,,,5,4022853165282,0.010,50,83089000
69524,016,57,6952401657,,,11,4022853193605,0.003,50,83089000
69524,020,57,6952402057,,,11,4022853193612,0.004,50,83089000
69524,025,57,6952402557,,,11,4022853193629,0.009,50,83089000
69524,030,57,6952403057,,,11,4022853193636,0.010,50,83089000
69525,021,33,6952502133,,,13,4022853092830,0.007,100,74199990
69525,025,33,6952502533,,,13,4022853092847,0.012,100,83089000
69525,030,33,6952503033,,,13,4022853092854,0.019,50,83089000
69552,000,01,6955200001,,,20,4022853232816,0.034,25,83089000
69552,001,01,6955200101,,,20,4022853232823,0.019,25,83089000
51549,001,C5,51549001C5,11,,,4022853208873,0.116,10,42010000
51549,002,C5,51549002C5,11,,,4022853208934,0.131,10,42010000
51549,003,C5,51549003C5,11,,,4022853208996,0.143,10,42010000
51549,004,C5,51549004C5,11,,,4022853209054,0.151,10,42010000
51549,001,C7,51549001C7,18,,,4022853208903,0.116,10,42010000
51549,002,C7,51549002C7,18,,,4022853208965,0.131,10,42010000
51549,003,C7,51549003C7,18,,,4022853209023,0.143,10,42010000
51549,004,C7,51549004C7,18,,,4022853209085,0.151,10,42010000
51549,001,L5,51549001L5,11,,,4022853208880,0.116,10,42010000
51549,002,L5,51549002L5,11,,,4022853208941,0.131,10,42010000
51549,003,L5,51549003L5,11,,,4022853209009,0.143,10,42010000
51549,004,L5,51549004L5,11,,,4022853209061,0.151,10,42010000
51549,001,L7,51549001L7,18,,,4022853208910,0.116,10,42010000
51549,002,L7,51549002L7,18,,,4022853208972,0.131,10,42010000
51549,003,L7,51549003L7,18,,,4022853209030,0.143,10,42010000
51549,004,L7,51549004L7,18,,,4022853209092,0.151,10,42010000
51549,001,P5,51549001P5,11,,,4022853208897,0.116,10,42010000
51549,002,P5,51549002P5,11,,,4022853208958,0.131,10,42010000
51549,003,P5,51549003P5,11,,,4022853209016,0.143,10,42010000
51549,004,P5,51549004P5,11,,,4022853209078,0.151,10,42010000
51549,001,P7,51549001P7,18,,,4022853208927,0.116,10,42010000
51549,002,P7,51549002P7,18,,,4022853208989,0.131,10,42010000
51549,003,P7,51549003P7,18,,,4022853209047,0.143,10,42010000
51549,004,P7,51549004P7,18,,,4022853209108,0.151,10,42010000
51549,001,S5,51549001S5,11,,,4022853231079,0.116,10,42010000
51549,002,S5,51549002S5,11,,,4022853231086,0.131,10,42010000
51549,003,S5,51549003S5,11,,,4022853231093,0.143,10,42010000
51549,004,S5,51549004S5,11,,,4022853231109,0.151,10,42010000
51549,001,S7,51549001S7,18,,,4022853231116,0.116,10,42010000
51549,002,S7,51549002S7,18,,,4022853231123,0.131,10,42010000
51549,003,S7,51549003S7,18,,,4022853231130,0.143,10,42010000
51549,004,S7,51549004S7,18,,,4022853231147,0.151,10,42010000
60250,075,V1,60250075V1,53,,,4022853174789,0.079,5,42010000
